Chapter 13 Descriptive tasks using bmbstats | bmbstats: bootstrap magnitude-based statistics for sports scientists
…
yoyo_mas_data
#> # A tibble: 30 x 3
#>    Athlete    YoYoIR1   MAS
#>    <chr>        <dbl> <dbl>
#>  1 Athlete 01   1628.  15.4
#>  2 Athlete 02   1089.  15.0
#>  3 Athlete 03   1438.  15.2
#>  4 Athlete 04   1215.  15.0
#>  5 Athlete 05    967.  14.3
#>  6 Athlete 06   1101.  14.9
#>  7 Athlete 07   1014.  14.5
#>  8 Athlete 08   1424.  15.2
#>  9 Athlete 09    633.  14.1
#> 10 Athlete 10   1348.  14.9
#> # … with 20 more rows
…
